server {
        listen 80;
        listen [::]:80;

        root /var/www/mandla.me/html;
        index index.html index.htm;

        server_name mandla.me www.mandla.me;

        location / {
                try_files $uri $uri/ =404;
        }
}
